{
  "type": "crafting_shapeless",
  "ingredients": [
    { "item": "delightful:cheeseburger" },
    { "item": "farmersdelight:beef_patty" },
    { "item": "farmersdelight:cooked_bacon" },
    { "tag": "forge:cheese" }
  ],
  "result": { "item": "delightful:deluxe_cheeseburger", "count": 1 }
}