{
    "type": "farmersdelight:cooking",
    "ingredients": [
        {
            "item": "minecraft:sugar"
        },
        {
            "item": "minecraft:sugar"
        },
        {
            "item": "neapolitan:mint_leaves"
        }
    ],
    "result": {
      "item": "neapolitan:mint_candies",
      "count": 4
    },
    "experience": 0.35,
    "cookingtime": 200,
    "container": {
      "item": "minecraft:paper"
    }
}