{
    "type": "farmersdelight:cooking",
    "ingredients": [
        {
            "tag": "forge:sugar"
        },
        {
            "tag": "forge:milk"
        },
        {
            "tag": "forge:dough"
        },
        {
            "tag": "forge:eggs"
        }
    ],
    "result": {
      "item": "supplementaries:pancake",
      "count": 3
    },
    "experience": 0.35,
    "cookingtime": 200
}