{
  "type": "minecraft:smithing",
  "base": { "item": "minecraft:crossbow" },
  "addition": { "item": "minecraft:spyglass" },
  "result": { "item": "additionaladditions:crossbow_with_spyglass", "count": 1 }
}