{
  "type": "farmersrespite:brewing",
  "ingredients": [
    { "item": "nethers_exoticism:sliced_kiwano" },
    { "item": "minecraft:sugar"  }
  ],
  "result": { "item": "nethers_exoticism:kiwano_juice", "count": 1 },
  "container": { "item": "minecraft:glass_bottle", "count": 1 },
  "experience": 0.35,
  "cookingtime": 200,
  "needwater": true
}