{
  "type": "farmersdelight:cutting",
  "ingredients": [
    { "item": "minecraft:end_stone" }
  ],
  "result": [
    {
      "item": "minecraft:flint",
      "count": 1,
      "chance": 0.25
    }
  ],
  "tool": { "tag": "forge:tools/pickaxes" }
}