{
  "type": "farmersdelight:cutting",
  "ingredients": [
    { "item": "galosphere:lumiere_block" }
  ],
  "result": [
    { "item": "galosphere:lumiere_shard", "count": 4 }
  ],
  "tool": { "tag": "forge:tools/pickaxes" }
}