{
  "type": "farmersdelight:cooking",
  "ingredients": [
    { "tag": "forge:mushrooms" },
    { "tag": "forge:mushrooms" },
    [
      { "item": "floral_flair:gem_of_the_jungle" }
    ]
  ],
  "result": {
    "type": "forge:nbt",
    "item": "minecraft:suspicious_stew",
    "count": 1,
    "nbt": "{EffectId: 2b, \"forge:effect_id\": \"minecraft:slowness\", EffectDuration: 120}"
  },
  "container": { "item": "minecraft:bowl", "count": 1 },
  "experience": 0,
  "cookingtime": 200 
}