{
  "type": "farmersdelight:cooking",
  "ingredients": [
    { "tag": "forge:mushrooms" },
    { "tag": "forge:mushrooms" },
    [
      { "item": "minecraft:wither_rose" }
    ]
  ],
  "result": {
    "type": "forge:nbt",
    "item": "minecraft:suspicious_stew",
    "count": 1,
    "nbt": "{EffectId: 20b, \"forge:effect_id\": \"minecraft:wither\", EffectDuration: 160}"
  },
  "container": { "item": "minecraft:bowl", "count": 1 },
  "experience": 0,
  "cookingtime": 200 
}