{
  "type": "crafting_shaped",
  "pattern": [
    "LLL",
    "SIS",
    "LLL"
  ],
  "key": {
    "I": { "tag": "forge:ingots/alloy" },
    "S": { "item": "farmersdelight:canvas" },
    "L": { "tag": "forge:leather" }
  },
  "result": { "item": "backpacked:backpack", "count": 1 }
}