{
  "type": "crafting_shaped",
  "pattern": [
    " I ",
    " S ",
    " S "
  ],
  "key": {
    "I": [
      { "tag": "forge:flint" },
      { "item": "phantasm:crystal_spike_tip" }
    ],
    "S": { "tag": "forge:rods/wooden" }
  },
  "result": { "item": "minecraft:stone_shovel", "count": 1 }
}