{
  "type": "crafting_shaped",
  "pattern": [
    "GGG",
    "G G",
    "GGG"
  ],
  "key": {
    "G": {
      "item": "biomemakeover:ancient_oak_planks"
      }
  },
  "result": {
    "item": "compat_makeover:ancient_oak_chest",
    "count": 1
  }
}