{
  "type": "crafting_shaped",
  "pattern": [
    "GGG",
    "G G",
    "GGG"
  ],
  "key": {
    "G": {
      "item": "ecologics:coconut_planks"
      }
  },
  "result": {
    "item": "everycomp:q/ecologics/coconut_chest",
    "count": 1
  }
}