{
  "type": "crafting_shaped",
  "pattern": [
    "GGG",
    "G G",
    "GGG"
  ],
  "key": {
    "G": {
      "item": "nethers_exoticism:ramboutan_planks"
      }
  },
  "result": {
    "item": "everycomp:q/nethers_exoticism/ramboutan_chest",
    "count": 1
  }
}