{
  "replace": false,
  "values": [
    "additionaladditions:rose_gold_axe",
    "additionaladditions:gilded_netherite_axe",
    "boneequipment:bone_axe",
    "create_sa:blazing_axe",
    "create_sa:brass_axe",
    "create_sa:zinc_axe",
    "create_sa:copper_axe",
    "create_sa:experience_axe",
    "create_sa:rose_quartz_axe",
    "alloyed:steel_axe",
    "phantasm:crystalline_axe",
    "phantasm:stellium_axe",
    "miningmaster:haste_peridot_axe",
    "miningmaster:power_pyrite_axe",
    "miningmaster:kinetic_opal_axe",
    "miningmaster:ultima_axe",
    "nethers_exoticism:kiwano_axe",
    "oreganized:electrum_axe",
    "spirit:soul_steel_axe",
    "stalwart_dungeons:tungsten_axe",
    "stalwart_dungeons:chorundum_axe",
    "upgradednetherite:gold_upgraded_netherite_axe",
    "upgradednetherite:fire_upgraded_netherite_axe",
    "upgradednetherite:ender_upgraded_netherite_axe",
    "upgradednetherite:water_upgraded_netherite_axe",
    "upgradednetherite:wither_upgraded_netherite_axe",
    "upgradednetherite:poison_upgraded_netherite_axe",
    "upgradednetherite:phantom_upgraded_netherite_axe",
    "upgradednetherite:feather_upgraded_netherite_axe",
    "upgradednetherite:corrupt_upgraded_netherite_axe",
    "upgradednetherite:echo_upgraded_netherite_axe",
    "upgradednetherite_ultimate:ultimate_upgraded_netherite_axe"
  ]
}