{
  "replace": false,
  "values": [
    "minecraft:shield",
    "slimy_stuff:slime_shield",
    "slimy_stuff:viscous_shield",
    "slimy_stuff:nether_shield",
    "slimy_stuff:magma_creamy_shield",
    "nethers_exoticism:rambutan_shield",
    "the_bumblezone:honey_crystal_shield",
    "unusualend:blob_shield",
    "upgradednetherite:netherite_shield",
    "upgradednetherite:gold_upgraded_netherite_shield",
    "upgradednetherite:fire_upgraded_netherite_shield",
    "upgradednetherite:ender_upgraded_netherite_shield",
    "upgradednetherite:water_upgraded_netherite_shield",
    "upgradednetherite:wither_upgraded_netherite_shield",
    "upgradednetherite:poison_upgraded_netherite_shield",
    "upgradednetherite:phantom_upgraded_netherite_shield",
    "upgradednetherite:feather_upgraded_netherite_shield",
    "upgradednetherite:corrupt_upgraded_netherite_shield",
    "upgradednetherite:echo_upgraded_netherite_shield",
    "upgradednetherite_ultimate:ultimate_upgraded_netherite_shield",
    "stalwart_dungeons:tungsten_shield",
    "stalwart_dungeons:warted_tungsten_shield",
    "stalwart_dungeons:chorundum_shield"
  ]
}