{
  "type": "brewinandchewin:fermenting",
  "ingredients": [
    { "item": "minecraft:spider_eye" }
  ],
  "result": { "item": "minecraft:fermented_spider_eye", "count": 1 },
  "container": { "item": "minecraft:sugar", "count": 1 },
  "experience": 0.35,
  "cookingtime": 300,
  "temperature": 4
}