{
  "type": "brewinandchewin:fermenting",
  "ingredients": [
    { "item": "minecraft:crimson_fungus" },
    { "item": "minecraft:crimson_fungus" },
    { "item": "minecraft:sugar" }
  ],
  "result": { "item": "brewinandchewin:unripe_scarlet_cheese_wheel", "count": 1 },
  "container": { "item": "minecraft:honeycomb", "count": 1 },
  "experience": 0.6,
  "cookingtime": 12000,
  "temperature": 4
}