{
  "type": "crafting_shaped",
  "pattern": [
    "SDS",
    "PPP",
    "ECE"
  ],
  "key": {
    "S": { "item": "minecraft:sugar" },
    "D": { "tag": "forge:dough/wheat" },
    "P": { "item": "neapolitan:chocolate_bar" },
    "E": { "tag": "forge:eggs" },
    "C": { "item": "farmersdelight:pie_crust" }
  },
  "result": { "item": "farmersdelight:chocolate_pie", "count": 1 }
}