{
  "type": "crafting_shaped",
  "pattern": [
    "MDM",
    "RPO",
    "ECE"
  ],
  "key": {
    "M": { "item": "minecraft:brown_mushroom" },
    "D": { "tag": "forge:dough/wheat" },
    "R": { "tag": "forge:vegetables/carrot" },
    "P": { "item": "farmersdelight:cooked_chicken_cuts" },
    "O": { "tag": "forge:vegetables/onion" },
    "E": { "tag": "forge:eggs" },
    "C": { "item": "farmersdelight:pie_crust" }
  },
  "result": { "item": "largemeals:mushroom_pot_pie", "count": 1 }
}