{
  "type": "minecraft:smithing",
  "base": { "item": "farmersdelight:golden_knife" },
  "addition": { "tag": "forge:ingots/electrum" },
  "result": { "item": "oreganized:electrum_knife", "count": 1 }
}