{
  "type": "crafting_shaped",
  "pattern": [
    "III",
    "SBS",
    "SSS"
  ],
  "key": {
    "I": [
      { "tag": "forge:ingots/iron" },
      { "item": "phantasm:crystal_spike_tip" }
    ],
    "B": [
      { "tag": "forge:buckets/lava" },
      { "item": "minecraft:dragon_breath" }
    ],
    "S": [
      { "item": "minecraft:tuff" },
      { "item": "minecraft:blackstone" },
      { "item": "phantasm:raw_purpur" },
      { "item": "unusualend:raw_purpur_block" }
    ]
  },
  "result": {
    "item": "miningmaster:gem_forge",
    "count": 1
  }
}