{
  "type": "crafting_shaped",
  "pattern": [
    "ISI",
    " R "
  ],
  "key": {
    "I": { "tag": "forge:gems/diamond" },
    "S": { "item": "pyromancer:golden_mace" },
    "R": { "tag": "forge:rods/wooden" }
  },
  "result": { "item": "pyromancer:diamond_mace", "count": 1 }
}