{
  "type": "crafting_shapeless",
  "ingredients": [
    { "item": "pyromancer:drops_of_mercury" },
    { "item": "pyromancer:bombsack" },
    { "tag": "forge:rafflesia" }
  ],
  "result": { "item": "pyromancer:rotten_bombsack", "count": 1 }
}