{
  "type": "minecraft:blasting",
  "ingredient": { "item": "oreganized:deepslate_silver_ore" },
  "result": { "item": "galosphere:silver_ingot", "count": 1 },
  "experience": 0,
  "cookingtime": 100
}