{
  "type": "farmersdelight:cooking",
  "ingredients": [
    { "tag": "forge:raw_goat" },
    { "tag": "forge:vegetables/carrot" },
    { "tag": "forge:vegetables/potato" },
    { "tag": "forge:mushrooms" }
  ],
  "result": { "item": "windswept:goat_stew", "count": 1 },
  "container": { "item": "minecraft:bowl", "count": 1 },
  "experience": 0,
  "cookingtime": 200
}